<?xml version="1.0" standalone="no"?> 
<!DOCTYPE svg PUBLIC "-//W3C//DTD SVG 1.1//EN" "http://www.w3.org/Graphics/SVG/1.1/DTD/svg11.dtd" >
<svg xmlns="http://www.w3.org/2000/svg">
<defs>
  <font id="Trubman-icons" horiz-adv-x="44">
    <font-face font-family="Trubman-icons"
      units-per-em="41" ascent="41"
      descent="0" />
    <missing-glyph horiz-adv-x="0" />
    <glyph glyph-name="icon-email"
      unicode="&#xE001;"
      horiz-adv-x="32" d=" M25.109 5.972C24.986 5.972 24.863 6.017 24.767 6.108L19.013 11.506C18.812 11.694 18.802 12.011 18.991 12.212C19.18 12.415 19.495 12.424 19.698 12.234L25.452 6.836C25.653 6.648 25.663 6.331 25.474 6.13C25.375 6.025 25.243 5.972 25.109 5.972z M5.90284 5.9719C5.76984 5.9719 5.63684 6.0249 5.53784 6.1299C5.34884 6.3309 5.35884 6.6479 5.55984 6.8359L11.3158 12.2339C11.5178 12.4219 11.8348 12.4139 12.0228 12.2119C12.2118 12.0109 12.2018 11.6939 12.0008 11.5059L6.24484 6.1079C6.14884 6.0169 6.02584 5.9719 5.90284 5.9719z M28.512 0.953H2.5C1.122 0.953 0 2.074 0 3.453V20.5C0 21.879 1.122 23 2.5 23H28.512C29.89 23 31.012 21.879 31.012 20.5V3.453C31.012 2.074 29.89 0.953 28.512 0.953zM2.5 22C1.673 22 1 21.327 1 20.5V3.453C1 2.626 1.673 1.953 2.5 1.953H28.512C29.339 1.953 30.012 2.626 30.012 3.453V20.5C30.012 21.327 29.339 22 28.512 22H2.5z M15.5077 9.4639C14.8427 9.4639 14.1777 9.6849 13.6717 10.1259L0.831745 21.32691C0.623745 21.50791 0.601745 21.82391 0.782745 22.032913C0.965745 22.240913 1.28074 22.259913 1.48874 22.080913L14.3287 10.8809C14.9677 10.3239 16.0477 10.3239 16.6857 10.8809L29.5097 22.062913C29.7167 22.243913 30.0317 22.223913 30.2157 22.014913C30.3967 21.80591 30.3757 21.49091 30.1677 21.30891L17.3437 10.1269C16.8367 9.6849 16.1727 9.4639 15.5077 9.4639z" />
    <glyph glyph-name="icon-menu-about"
      unicode="&#xE002;"
      horiz-adv-x="28" d=" M27.7535 16.931C27.6009 17.0206 27.4122 17.0229 27.2575 16.937L25.8815 16.1725L25.5 29.514C25.4924 29.784687 25.2707 30.000124946 25 29.9999999456325H21.5C21.2293 30.000124946 21.0076 29.784687 21 29.514L20.534 13.2L19 12.35V16.5C18.9999 16.7761 18.7759 16.9999 18.4998 16.9998C18.415 16.9997 18.3316 16.9781 18.2575 16.937L10 12.35V16.5C9.99987 16.7761 9.77588 16.9999 9.49975 16.9998C9.415 16.9997 9.33162 16.9781 9.2575 16.937L0.2575 11.937C0.0986876 11.8489 0.0000625 11.6816 0 11.5V0.5C0 0.2239 0.223875 0 0.5 0H27.5C27.7761 0 28 0.2239 28 0.5V16.5C28 16.6772 27.9062 16.8412 27.7535 16.931zM21.986 29H24.514L24.543 28H21.9575L21.986 29zM21.9285 27H24.5715L24.8965 15.6255L21.55 13.767L21.9285 27zM13.5 1H10.5V3.5H13.5V1zM17.5 1H14.5V3.5H17.5V1zM27 1H18.5V4C18.5 4.2761 18.2761 4.5 18 4.5H10C9.72387 4.5 9.5 4.2761 9.5 4V1H1V11.2055L9 15.65V11.5C9.00013 11.2239 9.22412 11.0001 9.50025 11.0002C9.585 11.0003 9.66838 11.0219 9.7425 11.063L18 15.65V11.5C18.0001 11.2239 18.2241 11.0001 18.5002 11.0002C18.585 11.0003 18.6684 11.0219 18.7425 11.063L23.458 13.6825L25.65 14.9L27 15.65V1z M6.99902 10H2.99902C2.7229 10 2.49902 9.7761 2.49902 9.5V7.5C2.49902 7.2239 2.7229 7 2.99902 7H6.99902C7.27515 7 7.49902 7.2239 7.49902 7.5V9.5C7.49902 9.7761 7.27515 10 6.99902 10zM6.49902 8H3.49902V9H6.49902V8z M15.9951 10H11.9951C11.719 10 11.4951 9.7761 11.4951 9.5V7.5C11.4951 7.2239 11.719 7 11.9951 7H15.9951C16.2712 7 16.4951 7.2239 16.4951 7.5V9.5C16.4951 9.7761 16.2712 10 15.9951 10zM15.4951 8H12.4951V9H15.4951V8z M24.9971 10H20.9971C20.7209 10 20.4971 9.7761 20.4971 9.5V7.5C20.4971 7.2239 20.7209 7 20.9971 7H24.9971C25.2732 7 25.4971 7.2239 25.4971 7.5V9.5C25.4971 9.7761 25.2732 10 24.9971 10zM24.4971 8H21.4971V9H24.4971V8z" />
    <glyph glyph-name="icon-menu-contact"
      unicode="&#xE003;"
      horiz-adv-x="19" d=" M9.58711 22.05493C7.67527 22.05493 6.11914 20.49881 6.11914 18.58697C6.11914 16.6751 7.67527 15.119 9.58711 15.119C11.4989 15.119 13.0551 16.6751 13.0551 18.58697C13.0551 20.49881 11.4989 22.05493 9.58711 22.05493zM9.58711 16.1098C8.22122 16.1098 7.10999 17.2211 7.10999 18.58697C7.10999 19.95285 8.22122 21.06408 9.58711 21.06408C10.953 21.06408 12.0642 19.95285 12.0642 18.58697C12.0642 17.2211 10.953 16.1098 9.58711 16.1098z M16.2189 25.2172C14.4245 27.01163 12.0385 28 9.50096 28C6.96291 28 4.57744 27.01163 2.78302 25.2172C-0.537808 21.89687 -0.950496 15.6496 1.88927 11.8645L9.50096 0.8721L17.1013 11.8492C19.9524 15.6496 19.5397 21.89687 16.2189 25.2172zM16.2977 12.4283L9.50096 2.613L2.69335 12.4437C0.117637 15.878 0.486728 21.51986 3.48404 24.51668C5.0912 26.12383 7.22796 27.009152 9.50096 27.009152C11.774 27.009152 13.9107 26.12383 15.5184 24.51668C18.5157 21.51986 18.8848 15.878 16.2977 12.4283z" />
    <glyph glyph-name="icon-menu-delivery"
      unicode="&#xE004;"
      horiz-adv-x="28" d=" M27.7527 21.82188L14.1903 27.9592305C14.07 28.0135898 13.93 28.0135898 13.8098 27.9592305L0.247308 21.82188C0.0960878 21.75346 0 21.60991 0 21.45252V6.5475C0 6.3901 0.0960878 6.2466 0.247308 6.1781L13.8098 0.0408C13.8698 0.0136 13.935 0 14 0C14.0651 0 14.1301 0.0136 14.1903 0.0408L27.7527 6.1781C27.9039 6.2466 28 6.3901 28 6.5475V21.45246C28 21.60996 27.9039 21.75341 27.7527 21.82188zM14 27.13438L26.556 21.45252L22.9163 19.80544C22.8932 19.8219 22.8689 19.83711 22.8422 19.84919L10.3715 25.49239L14 27.13438zM9.38329 25.02864L21.921 19.35504L19.3531 18.19298L6.8206 23.86429L9.38329 25.02864zM22.2144 18.57694V14.2815L19.8158 13.196V17.4915L22.2144 18.57694zM27.1249 6.8049L14.4376 1.0637V15.0578L17.4639 16.4272C17.6815 16.5257 17.7727 16.7709 17.6677 16.9749C17.5626 17.1789 17.3011 17.2645 17.0834 17.166L14 15.7706L12.7867 16.3197C12.5691 16.4183 12.3075 16.3326 12.2025 16.1286C12.0974 15.9247 12.1886 15.6794 12.4062 15.5809L13.5624 15.0578V1.0637L0.875117 6.805V20.79906L10.5364 16.4271C10.5977 16.3993 10.6625 16.3862 10.7263 16.3862C10.889 16.3862 11.0452 16.4716 11.1206 16.6181C11.2257 16.8221 11.1345 17.0673 10.9168 17.1658L1.444 21.45252L5.79071 23.41952L18.9346 17.4715C18.9365 17.469 18.9387 17.4668 18.9407 17.4643V12.5425C18.9407 12.4014 19.0181 12.2702 19.1456 12.1951C19.2165 12.1534 19.2973 12.1324 19.3783 12.1324C19.4432 12.1324 19.5082 12.1459 19.5685 12.1732L22.8422 13.6546C22.9934 13.723 23.0895 13.8665 23.0895 14.0239V18.97288L27.1249 20.799V6.8049V6.8049z M4.48641 8.3955L2.49608 9.2962C2.27835 9.3948 2.01686 9.3092 1.91179 9.1052C1.80672 8.9012 1.89796 8.656 2.11558 8.5575L4.1059 7.6568C4.16722 7.629 4.23204 7.6159 4.29581 7.6159C4.45846 7.6159 4.6147 7.7013 4.69014 7.8478C4.79527 8.0519 4.70402 8.297 4.48641 8.3955z M6.32071 9.5132L2.50141 11.2416C2.28374 11.3401 2.02219 11.2545 1.91712 11.0505C1.81211 10.8465 1.90335 10.6013 2.12097 10.5028L5.94027 8.7745C6.00159 8.7467 6.0664 8.7336 6.13017 8.7336C6.29282 8.7336 6.44906 8.819 6.5245 8.9655C6.62957 9.1696 6.53832 9.4148 6.32071 9.5132z" />
    <glyph glyph-name="icon-menu-reviev"
      unicode="&#xE005;"
      horiz-adv-x="28" d=" M18.2714 29C12.9066 29 8.54233 25.06518 8.54233 20.22865C8.54233 19.74647 8.59074 19.26903 8.67664 18.7992C8.07438 18.9558 7.40236 19.04218 6.65394 19.04218C4.7385 19.04218 3.30998 18.5367 2.40779 17.5396C1.29156 16.3057 1.42919 14.7875 1.43346 14.7709V13.4724C1.1563 13.1278 0.962193 12.611 0.962193 12.1791V10.4963C0.962193 9.9733 1.19711 9.4859 1.59909 9.157C1.98778 7.6986 2.9118 6.8096 3.33182 6.467V5.1652C3.33182 4.7888 2.8577 4.011 2.48562 3.8069L0.50374 2.5398C0.0922716 2.2768 -0.0923435 1.7856 0.0448127 1.3172C0.181494 0.8483 0.601505 0.5337 1.08986 0.5337H12.218C12.7064 0.5337 13.1264 0.8483 13.2631 1.3172C13.4002 1.7856 13.2156 2.2768 12.8041 2.5398L10.7938 3.8235C10.4497 4.0115 9.97559 4.7888 9.97559 5.1652V6.467C10.3961 6.8096 11.3201 7.6986 11.7088 9.157C12.1108 9.4859 12.3452 9.9737 12.3452 10.4963V11.3026C13.0286 11.5361 13.7353 11.827 14.376 12.1891C15.608 11.7031 16.9169 11.4568 18.2709 11.4568C23.6357 11.4568 28 15.3916 28 20.22817C28 25.06471 23.6362 29 18.2714 29zM11.3965 10.4963C11.3965 10.23 11.2603 9.9837 11.032 9.8361L10.8702 9.7312L10.827 9.5433C10.4573 7.9325 9.24994 7.1053 9.23902 7.0982L9.02641 6.9577V5.1647C9.02641 4.4424 9.68893 3.3447 10.3106 3.0063L12.293 1.7391H12.2935C12.3519 1.7016 12.3718 1.6494 12.3523 1.5825C12.3324 1.5156 12.2873 1.4819 12.218 1.4819H1.08986C1.02057 1.4819 0.975482 1.5156 0.956023 1.5825C0.936091 1.6494 0.956023 1.7016 1.01487 1.7391L2.96876 2.9897C3.61847 3.3447 4.28099 4.4424 4.28099 5.1647V6.9577L4.06838 7.0982C4.05651 7.1063 2.85438 7.9169 2.48088 9.5433L2.43769 9.7312L2.27586 9.8361C2.04758 9.9837 1.9109 10.2305 1.9109 10.4963V12.1791C1.9109 12.4126 2.06988 12.7942 2.22602 12.9352L2.38216 13.0766L2.37979 14.816C2.37884 14.8274 2.28392 15.9977 3.12062 16.9127C3.8363 17.6958 5.02515 18.093 6.65346 18.093C7.54759 18.093 8.31737 17.9701 8.94573 17.728C9.20058 16.9549 9.57266 16.2136 10.0586 15.525C10.051 15.4415 10.0397 15.3641 10.0306 15.2825C9.82562 13.3879 9.3534 11.9827 8.68138 11.3097L7.67668 10.305L9.08383 10.5043C9.08811 10.5048 9.10899 10.5081 9.12797 10.511C9.13414 10.5119 9.13651 10.5124 9.14411 10.5133C9.14506 10.5133 9.14648 10.5138 9.14743 10.5138C9.39469 10.5513 10.2964 10.6994 11.3965 11.0074V10.4963zM18.2714 12.406C17.2885 12.406 16.3322 12.5484 15.4177 12.8298C16.513 13.5222 16.5159 13.5944 16.514 13.8464C16.5126 14.0125 16.4234 14.1691 16.281 14.2536C16.0736 14.3774 15.8078 14.3243 15.6626 14.1373C15.468 13.9888 14.7267 13.5142 14.0945 13.1241H14.0941C13.3433 12.6703 12.4534 12.3263 11.6257 12.069C11.5351 12.0406 11.4449 12.0135 11.3562 11.9874C11.2821 11.9656 11.2095 11.9452 11.1374 11.9248C11.0548 11.9015 10.9722 11.8783 10.892 11.8569C10.8208 11.8379 10.752 11.8208 10.6832 11.8033C10.6054 11.7833 10.5261 11.7629 10.4516 11.7449C10.3999 11.7326 10.3529 11.7221 10.3031 11.7103C10.2238 11.6917 10.1426 11.6723 10.0681 11.6561C10.6652 12.8298 10.9172 14.3808 11.0211 15.6199L11.0363 15.7979L10.93 15.9417C10.8052 16.1111 10.6884 16.2853 10.5788 16.4633C10.5646 16.486 10.5527 16.5098 10.5389 16.5325C10.4421 16.6934 10.35 16.8567 10.266 17.0242C10.2613 17.0337 10.257 17.0437 10.2523 17.0532C10.0672 17.4267 9.91294 17.8144 9.79287 18.2154L9.77768 18.2657C9.59259 18.9026 9.49198 19.56043 9.49198 20.22865C9.49151 24.54171 13.4301 28.050822 18.2714 28.050822C23.1127 28.050822 27.0513 24.54171 27.0513 20.22865C27.0513 15.9156 23.1127 12.406 18.2714 12.406z" />
    <glyph glyph-name="icon-menu-service"
      unicode="&#xE006;"
      horiz-adv-x="28" d=" M26.4296 18.1621C26.7 18.1621 26.9189 18.3796 26.9189 18.6483V21.2165H27.5104C27.7808 21.2165 27.9997 21.434 27.9997 21.7027V23.8499C27.9997 24.11853 27.7808 24.33601 27.5104 24.33601H26.9059C26.6592 28.95457 22.9213 32.66826 18.2722 32.91309V33.513889C18.2722 33.782516 18.0533 34 17.7829 34H15.6213C15.3509 34 15.1319 33.782516 15.1319 33.513889V32.92625H12.8678V33.513889C12.8678 33.782516 12.6489 34 12.3785 34H10.2168C9.94668 34 9.72751 33.782516 9.72751 33.513889V32.91309C5.07872 32.66826 1.34053 28.95457 1.09409 24.33601H0.489319C0.219174 24.33601 0 24.11853 0 23.8499V21.7027C0 21.434 0.219174 21.2165 0.489319 21.2165H1.08083V19.5552C1.08083 19.5306 1.08338 19.5068 1.0867 19.4833C0.415411 18.8126 0 17.889 0 16.8707C0 15.8524 0.415666 14.929 1.08695 14.2581C1.08338 14.2345 1.08083 14.2107 1.08083 14.1862V12.5245H0.489574C0.219174 12.5245 0.000254838 12.307 0.000254838 12.0384V9.8909C0.000254838 9.6225 0.219174 9.4048 0.489574 9.4048H1.08083V1.3009C1.08083 1.0323 1.30001 0.8148 1.57015 0.8148H5.89374C6.16389 0.8148 6.38306 1.0323 6.38306 1.3009V9.4048H6.97432C7.24472 9.4048 7.46364 9.6225 7.46364 9.8909V12.0384C7.46364 12.307 7.24472 12.5245 6.97432 12.5245H6.38306V14.1862C6.38306 14.2107 6.38051 14.2348 6.37695 14.2586C7.04823 14.9293 7.46364 15.8526 7.46364 16.8709C7.46364 17.889 7.04823 18.8123 6.3772 19.483C6.38077 19.5065 6.38306 19.5306 6.38306 19.5549V21.2165H6.97458C7.24472 21.2165 7.4639 21.434 7.4639 21.7027V23.8499C7.4639 24.11853 7.24472 24.33601 6.97458 24.33601H6.41517C6.63588 26.04829 8.00444 27.40762 9.72776 27.62688V27.0714C9.72776 26.80302 9.94694 26.58529 10.2171 26.58529H12.3787C12.6491 26.58529 12.8681 26.80302 12.8681 27.0714V27.65904H15.1322V27.0714C15.1322 26.80302 15.3511 26.58529 15.6215 26.58529H17.7832C18.0533 26.58529 18.2725 26.80302 18.2725 27.0714V27.62713C19.9958 27.40788 21.3644 26.04829 21.5851 24.33626H21.0257C20.7555 24.33626 20.5364 24.11853 20.5364 23.8502V21.7027C20.5364 21.434 20.7555 21.2165 21.0257 21.2165H21.6169V12.5245H21.0257C20.7555 12.5245 20.5364 12.307 20.5364 12.0384V9.8909C20.5364 9.6225 20.7555 9.4048 21.0257 9.4048H21.6172V1.3012C21.6172 1.0326 21.8361 0.8151 22.1065 0.8151H26.4298C26.7002 0.8151 26.9192 1.0326 26.9192 1.3012V9.4048H27.5107C27.7811 9.4048 28 9.6225 28 9.8909V12.0384C28 12.307 27.7811 12.5245 27.5107 12.5245H26.9192V16.7038C26.9192 16.9722 26.7 17.1899 26.4298 17.1899C26.1594 17.1899 25.9405 16.9722 25.9405 16.7038V12.525H22.5956V21.2165H25.9405V18.6483C25.9403 18.3796 26.1592 18.1621 26.4296 18.1621zM5.40417 1.787H2.05947V9.4048H5.40417V1.787zM6.485 10.377H0.978638V11.5523H6.485V10.377zM25.9405 1.7873H22.5956V9.4048H25.9405V1.7873zM27.0211 10.377H21.5147V11.5523H27.0211V10.377zM2.05947 13.558C2.56281 13.3064 3.13062 13.1636 3.73157 13.1636C4.33277 13.1636 4.90083 13.3064 5.40417 13.5583V12.525H2.05947V13.558zM3.73157 14.1358C2.21366 14.1358 0.978638 15.3627 0.978638 16.8707C0.978638 18.3789 2.21366 19.6058 3.73157 19.6058C5.24973 19.6058 6.48475 18.3789 6.48475 16.8707C6.48475 15.3627 5.24973 14.1358 3.73157 14.1358zM5.40417 20.1833C4.90083 20.4355 4.33277 20.5783 3.73157 20.5783C3.13062 20.5783 2.56281 20.4355 2.05947 20.1836V21.2165H5.40417V20.1833zM6.485 22.1888H5.89604C5.89527 22.1888 5.89425 22.1888 5.89349 22.1888H1.57015C1.56939 22.1888 1.56837 22.1888 1.5676 22.1888H0.978638V23.3638H6.485V22.1888zM5.42889 24.33601H2.07451C2.31891 28.41833 5.6185 31.69629 9.72751 31.93909V28.6067C7.46364 28.37858 5.65851 26.58529 5.42889 24.33601zM11.8892 27.55751H10.7061V33.027778H11.8892V27.55751zM12.8678 28.63126V31.95403H15.1319V28.63126H12.8678zM17.2936 27.55751H16.1106V33.027778H17.2936V27.55751zM18.2722 28.6067V31.93909C22.3812 31.69629 25.6808 28.41833 25.9252 24.33601H22.5709C22.3412 26.58529 20.5361 28.37858 18.2722 28.6067V28.6067zM21.5147 23.3638H27.0211V22.1888H26.4321C26.4311 22.1888 26.4304 22.1888 26.4296 22.1888H22.106C22.1052 22.1888 22.1045 22.1888 22.1035 22.1888H21.5147V23.3638z M3.63062 18.4446C2.77312 18.4446 2.0752 17.7467 2.0752 16.8892C2.0752 16.0311 2.77312 15.3335 3.63062 15.3335C4.48864 15.3335 5.18631 16.0314 5.18631 16.8892C5.18631 17.7467 4.48864 18.4446 3.63062 18.4446V18.4446zM3.63062 16.3031C3.30767 16.3031 3.04481 16.5659 3.04481 16.8889C3.04481 17.2121 3.30767 17.475 3.63062 17.475C3.95383 17.475 4.21669 17.2121 4.21669 16.8889C4.21669 16.5659 3.95383 16.3031 3.63062 16.3031z" />
    <glyph glyph-name="icon-pdf"
      unicode="&#xE007;"
      horiz-adv-x="24" d=" M0.136898 17.50514L6.62557 23.858531C6.71794 23.9489063 6.84539 24 6.97851 24H16.6494C17.7317 24 18.6122 23.170594 18.6122 22.15116V15.6923H22.5315C23.3412 15.6923 24 15.07172 24 14.30887V7.3834C24 6.6206 23.3412 6 22.5315 6H18.6122V1.8456C18.6122 0.828 17.7317 0 16.6494 0H1.96283C0.880533 0 5.07549e-7 0.8275 5.07549e-7 1.8446V17.18508C5.07549e-7 17.30442 0.0490979 17.41912 0.136898 17.50514zM6.85713 22.75402L1.5305 17.53847H6.85713V22.75402zM22.5315 6.9231C22.8011 6.9231 23.0204 7.1295 23.0204 7.3834V14.30887C23.0204 14.5627 22.801 14.76923 22.5315 14.76923H9.30522C9.03561 14.76923 8.81633 14.5627 8.81633 14.30887V7.3834C8.81633 7.1295 9.03565 6.9231 9.30522 6.9231H22.5315zM0.979626 1.8446C0.979626 1.3365 1.42071 0.9231 1.96288 0.9231H16.6494C17.1916 0.9231 17.6327 1.3369 17.6327 1.8456V6H9.30522C8.49548 6 7.8367 6.6206 7.8367 7.3834V14.30887C7.8367 15.07172 8.49548 15.6923 9.30522 15.6923H17.6327V22.15116C17.6327 22.66167 17.1916 23.076938 16.6494 23.076938H7.83675V17.07694C7.83675 16.82203 7.61743 16.61541 7.34697 16.61541H0.979626V1.8446z M13.4887 12.3287C13.3201 12.5385 13.1109 12.6748 12.861 12.7374C12.6984 12.7792 12.3494 12.8 11.8139 12.8H10.4009V8.6252H11.2814V10.2H11.8556C12.2542 10.2 12.5586 10.22 12.7688 10.2599C12.9235 10.2921 13.0757 10.3581 13.2255 10.4578C13.3752 10.5575 13.4986 10.6946 13.5958 10.8693C13.693 11.0439 13.7416 11.2594 13.7416 11.5157C13.7415 11.848 13.6572 12.119 13.4887 12.3287zM12.7346 11.1797C12.6682 11.0866 12.5764 11.0183 12.4594 10.9746C12.3424 10.9309 12.1104 10.9091 11.7633 10.9091H11.2814V12.0938H11.7068C12.0241 12.0938 12.2353 12.0843 12.3404 12.0653C12.4832 12.0406 12.6012 11.9789 12.6944 11.8802C12.7876 11.7815 12.8342 11.6561 12.8342 11.5043C12.8343 11.3809 12.801 11.2727 12.7346 11.1797z M17.9781 11.6595C17.8829 11.9263 17.744 12.1517 17.5616 12.3359C17.3792 12.52 17.16 12.6482 16.9042 12.7203C16.7138 12.7735 16.4371 12.8 16.0742 12.8H14.4648V8.6252H16.1218C16.4471 8.6252 16.7068 8.6546 16.9012 8.7135C17.161 8.7932 17.3673 8.9043 17.5199 9.0467C17.7222 9.2347 17.8779 9.4805 17.987 9.7843C18.0762 10.033 18.1208 10.3292 18.1208 10.6728C18.1208 11.0639 18.0733 11.3928 17.9781 11.6595zM17.1213 9.9451C17.0618 9.7581 16.985 9.6238 16.8908 9.5422C16.7966 9.4606 16.6781 9.4027 16.5353 9.3685C16.4262 9.3419 16.2487 9.3286 16.0028 9.3286H15.3454V12.0938H15.741C16.1 12.0938 16.341 12.0805 16.4639 12.0539C16.6285 12.0197 16.7643 11.9542 16.8714 11.8574C16.9785 11.7605 17.0618 11.6258 17.1213 11.453C17.1808 11.2803 17.2106 11.0325 17.2106 10.7097C17.2106 10.387 17.1808 10.1322 17.1213 9.9451z M21.8607 12.0938V12.8H18.8711V8.6252H19.7516V10.3994H21.5722V11.1056H19.7516V12.0938H21.8607z" />
    <glyph glyph-name="icon-phone"
      unicode="&#xE008;"
      horiz-adv-x="25" d=" M20.093 0.0674C19.0528 0.0674 17.7966 0.3169 16.415 0.816C13.3862 1.9092 10.0908 4.0697 7.13591 6.8984C4.18022 9.7279 1.9233 12.8834 0.780549 15.78287C-0.257936 18.41916 -0.260459 20.58292 0.774662 21.57304C0.923498 21.71552 1.07486 21.86847 1.23126 22.02624C2.17557 22.97691 3.24264 24.0467209 4.657 23.99842256C5.63158 23.9597839 6.57588 23.380204 7.54289 22.22829C10.4002 18.82648 9.11197 17.61419 7.62109 16.2087L7.3579 15.95916C7.11404 15.72572 6.65324 14.64464 10.94 10.5409C12.3393 9.2014 13.5325 8.221 14.486 7.6277C15.0864 7.2542 16.1602 6.6891 16.6008 7.1109L16.8657 7.3669C18.3322 8.7909 19.5986 10.0201 23.1496 7.2872C24.3529 6.3615 24.9575 5.4583 24.9978 4.5237C25.0559 3.1706 23.9299 2.1466 22.936 1.2435C22.772 1.0937 22.6123 0.9488 22.4634 0.8072C21.9497 0.3145 21.1281 0.0674 20.093 0.0674zM4.55609 23.19506C3.55124 23.19506 2.64394 22.28061 1.8409 21.47161C1.67945 21.30901 1.52304 21.15124 1.36916 21.00393C0.598078 20.26657 0.67628 18.329 1.56761 16.06622C2.66916 13.2714 4.85797 10.2173 7.73125 7.4667C10.6037 4.7177 13.7923 2.6224 16.7127 1.5687C19.0764 0.7138 21.1004 0.6413 21.8698 1.3779C22.0237 1.5252 22.1885 1.6749 22.3583 1.8287C23.2219 2.6143 24.2015 3.5046 24.1587 4.4923C24.1292 5.1709 23.6129 5.901 22.624 6.6617C19.665 8.9398 18.8376 8.1356 17.4653 6.8034L17.1962 6.5434C16.5403 5.9147 15.4749 6.054 14.0286 6.9539C13.0254 7.5786 11.786 8.5945 10.3464 9.9734C6.78862 13.3784 5.65092 15.4625 6.76424 16.53069L7.03248 16.78426C8.4275 18.09798 9.26922 18.89087 6.88869 21.72518C6.09238 22.67102 5.33054 23.165276 4.62168 23.194255C4.59982 23.19506 4.57796 23.19506 4.55609 23.19506z" />
    <glyph glyph-name="icon-serv-1"
      unicode="&#xE009;"
      horiz-adv-x="44" d=" M34.5276 28.37769H9.4722C9.1159 28.37769 8.82715 28.08894 8.82715 27.73264C8.82715 27.37634 9.1159 27.08759 9.4722 27.08759H34.5276C34.8839 27.08759 35.1727 27.37634 35.1727 27.73264C35.1727 28.08894 34.8839 28.37769 34.5276 28.37769z M34.5276 21.3542H9.4722C9.1159 21.3542 8.82715 21.0655 8.82715 20.7092C8.82715 20.353 9.1159 20.0642 9.4722 20.0642H34.5276C34.8839 20.0642 35.1727 20.3529 35.1727 20.7092C35.1727 21.0655 34.8839 21.3542 34.5276 21.3542z M26.313 16.7961H17.6861C17.3298 16.7961 17.041 16.5074 17.041 16.1511C17.041 15.7949 17.3298 15.506 17.6861 15.506H26.313C26.6693 15.506 26.958 15.7948 26.958 16.1511C26.958 16.5074 26.6693 16.7961 26.313 16.7961z M34.5276 24.8804H15.8384C15.4821 24.8804 15.1934 24.5916 15.1934 24.2353C15.1934 23.8791 15.4821 23.5903 15.8384 23.5903H34.5276C34.8839 23.5903 35.1726 23.879 35.1726 24.2353C35.1726 24.5916 34.8839 24.8804 34.5276 24.8804z M12.8373 24.8804H9.4722C9.1159 24.8804 8.82715 24.5916 8.82715 24.2353C8.82715 23.879 9.1159 23.5903 9.4722 23.5903H12.8373C13.1936 23.5903 13.4824 23.879 13.4824 24.2353C13.4824 24.5915 13.1936 24.8804 12.8373 24.8804z M40.6708 29.46783C40.5208 29.61521 40.3222 29.69633 40.1103 29.69633C40.1102 29.69633 40.1101 29.69633 40.1099 29.69633C38.8025 29.69633 37.7325 30.7183 37.6737 32.02335C37.6543 32.44771 37.3056 32.78003 36.8798 32.78003H6.96836C6.54245 32.78003 6.19363 32.44762 6.17438 32.02292C6.11826 30.77588 5.09741 29.75494 3.85028 29.69883C3.42575 29.67975 3.09326 29.33093 3.09326 28.90485V12.2312C3.09326 11.8051 3.42575 11.4564 3.85028 11.4373C5.09741 11.3811 6.11826 10.3602 6.17438 9.1128C6.19371 8.6884 6.54254 8.3561 6.96836 8.3561H26.0101C26.3664 8.3561 26.6552 8.6448 26.6552 9.0011C26.6552 9.3573 26.3664 9.6462 26.0101 9.6462H7.41196C7.1453 11.1998 5.93693 12.4082 4.38327 12.675V28.46133C5.93693 28.72799 7.1453 29.93662 7.41196 31.49002H36.4364C36.714 29.88729 38.0043 28.65013 39.6183 28.43838V17.484C39.6183 17.1278 39.9071 16.839 40.2634 16.839C40.6197 16.839 40.9084 17.1277 40.9084 17.484V28.90124C40.9084 29.116 40.824 29.31726 40.6708 29.46783z M42.2095 36H1.79051C0.803258 36 0 35.196742 0 34.20949V6.9269C0 5.9396 0.803258 5.1364 1.79051 5.1364H28.8649L27.9064 3.1278C27.7833 2.8699 27.8132 2.5675 27.9844 2.3387C28.1557 2.1099 28.4375 1.9962 28.7195 2.0413L30.504 2.3281L31.4994 0.6942C31.639 0.4649 31.887 0.3266 32.1535 0.3266C32.1665 0.3266 32.1796 0.3269 32.1926 0.3276C32.4738 0.3419 32.7238 0.5086 32.8452 0.7628L34.5748 4.387L36.3042 0.763C36.4254 0.5088 36.6754 0.342 36.9566 0.3275C36.9698 0.3268 36.983 0.3265 36.9961 0.3265C37.2626 0.3265 37.5106 0.4648 37.6502 0.694L38.6456 2.328L40.4302 2.041C40.713 1.9958 40.9943 2.1099 41.1654 2.3388C41.3365 2.5677 41.3663 2.8701 41.2431 3.1275L40.2846 5.1361H42.2095C43.1967 5.1361 44 5.9393 44 6.9267V34.20949C44 35.196742 43.1967 36 42.2095 36zM32.0977 2.1918L31.4225 3.2999C31.2599 3.5668 30.9555 3.7073 30.6467 3.6577L29.5008 3.4734L30.7079 6.0027C31.1836 5.5173 31.8614 5.255 32.565 5.3213C32.8055 5.3443 33.0467 5.2795 33.2437 5.1395C33.3087 5.0933 33.3761 5.0523 33.4445 5.0136L32.0977 2.1918zM34.7286 6.0167C34.7267 6.0164 34.7247 6.0162 34.7226 6.0159C34.6248 6.0015 34.5254 6.0015 34.4276 6.0158C34.4251 6.0161 34.4226 6.0164 34.4202 6.0168C34.2687 6.0402 34.1214 6.0982 33.9909 6.1909C33.6008 6.4684 33.1349 6.6158 32.6597 6.6158C32.5877 6.6158 32.5155 6.6124 32.4433 6.6056C32.0163 6.5653 31.6106 6.7998 31.4323 7.1893C31.3532 7.3622 31.2522 7.5222 31.135 7.6686C31.1298 7.6759 31.1242 7.6827 31.1187 7.6898C31.1122 7.6977 31.1061 7.7059 31.0996 7.7137C31.0921 7.7224 31.0843 7.7308 31.0763 7.7391C30.863 7.9845 30.5994 8.185 30.2992 8.3223C29.9097 8.5005 29.6752 8.9068 29.7156 9.3333C29.7675 9.8821 29.6202 10.4318 29.3009 10.881C29.0526 11.2301 29.0526 11.6993 29.3008 12.0484C29.6202 12.4976 29.7675 13.0473 29.7156 13.5961C29.6752 14.0226 29.9098 14.4289 30.2992 14.6071C30.8005 14.8365 31.2029 15.2389 31.4322 15.7401C31.6106 16.1297 32.0177 16.3643 32.4433 16.3238C32.9927 16.272 33.5418 16.4192 33.991 16.7386C34.3403 16.9868 34.8094 16.9868 35.1585 16.7386C35.6078 16.4192 36.157 16.2724 36.7062 16.3238C37.1331 16.3644 37.5391 16.1296 37.7174 15.7401C37.9467 15.2389 38.3491 14.8365 38.8503 14.6072C39.2398 14.4289 39.4744 14.0226 39.4341 13.5962C39.3821 13.0473 39.5294 12.4976 39.8487 12.0485C40.097 11.6994 40.097 11.2302 39.8487 10.8811C39.5294 10.4318 39.3821 9.8821 39.4341 9.3334C39.4744 8.9069 39.2398 8.5006 38.8502 8.3223C38.5507 8.1852 38.2877 7.9853 38.0747 7.7407C38.0659 7.7315 38.0573 7.7224 38.0493 7.7128C38.0437 7.7061 38.0384 7.6992 38.0328 7.6924C38.0264 7.6841 38.0199 7.676 38.0139 7.6675C37.897 7.5214 37.7963 7.3618 37.7174 7.1893C37.539 6.7998 37.1327 6.5651 36.7062 6.6056C36.1579 6.6572 35.6079 6.5103 35.1585 6.1909C35.0279 6.0981 34.8804 6.04 34.7286 6.0167zM38.5028 3.6578C38.1939 3.7072 37.8897 3.5668 37.727 3.2998L37.0519 2.1917L35.7051 5.0136C35.7735 5.0523 35.8408 5.0933 35.9059 5.1395C36.103 5.2796 36.3443 5.3445 36.5846 5.3213C37.2885 5.255 37.9661 5.5173 38.4418 6.0027L39.6488 3.4735L38.5028 3.6578zM42.71 6.9268C42.71 6.6509 42.4855 6.4263 42.2095 6.4263H39.6689L39.3363 7.1233C39.3531 7.1321 39.3698 7.1414 39.3871 7.1493C40.2754 7.5559 40.8103 8.4825 40.7183 9.4549C40.6955 9.6956 40.7601 9.9366 40.9001 10.1337C41.4661 10.9299 41.4661 11.9998 40.9001 12.796C40.7601 12.993 40.6955 13.234 40.7183 13.4747C40.8103 14.4471 40.2754 15.3737 39.387 15.7803C39.1673 15.8809 38.9909 16.0573 38.8902 16.2771C38.4838 17.1654 37.5567 17.7002 36.5845 17.6083C36.3437 17.5853 36.1029 17.65 35.9059 17.7901C35.1097 18.3561 34.0397 18.3562 33.2435 17.7901C33.0465 17.65 32.8049 17.5853 32.5649 17.6083C31.5912 17.7 30.6657 17.1654 30.2593 16.2772C30.1586 16.0573 29.9822 15.881 29.7624 15.7804C28.8741 15.3738 28.3392 14.4473 28.4312 13.4748C28.454 13.234 28.3895 12.9931 28.2494 12.796C27.6834 11.9998 27.6834 10.9299 28.2494 10.1338C28.3895 9.9368 28.454 9.6957 28.4312 9.455C28.3392 8.4825 28.8741 7.5559 29.7624 7.1494C29.7797 7.1415 29.7963 7.1322 29.8131 7.1234L29.4805 6.4263H1.79051C1.51456 6.4263 1.29001 6.6508 1.29001 6.9268V34.20949C1.29001 34.48544 1.51448 34.70999 1.79051 34.70999H42.2095C42.4854 34.70999 42.71 34.48544 42.71 34.20949V6.9268z M34.5267 15.4724C32.3169 15.4724 30.519 13.6746 30.519 11.4649C30.519 9.2551 32.3169 7.4573 34.5267 7.4573C36.7364 7.4573 38.5342 9.2552 38.5342 11.4649C38.5342 13.6747 36.7364 15.4724 34.5267 15.4724zM34.5267 8.7474C33.0282 8.7474 31.809 9.9665 31.809 11.465C31.809 12.9634 33.0282 14.1825 34.5267 14.1825C36.0251 14.1825 37.2442 12.9634 37.2442 11.465C37.2442 9.9665 36.0251 8.7474 34.5267 8.7474z" />
    <glyph glyph-name="icon-serv-2"
      unicode="&#xE00A;"
      horiz-adv-x="37" d=" M29.2485 10.7055C29.3466 10.9606 29.4205 11.2242 29.4694 11.4932L30.2193 15.7291C30.2478 15.8897 30.2111 16.0551 30.1175 16.1886C30.0238 16.3222 29.8809 16.4132 29.72 16.4414L27.9015 16.7617L30.0827 29.13168C31.2726 29.41025 32.1801 30.37355 32.3869 31.57789L33.0275 35.21072C33.0869 35.54512 32.8636 35.86422 32.5289 35.92305L26.4748 36.99050817C26.1403 37.0496445 25.8213 36.826307 25.7621 36.491902L25.1215 32.85907C24.9114 31.65653 25.4325 30.44379 26.4495 29.76867L24.269 17.3981L22.4535 17.7172C22.1197 17.776 21.8012 17.5536 21.7414 17.2198L20.9922 12.9845C20.8994 12.4546 20.9096 11.9122 21.0222 11.3863C19.0605 11.0012 17.2063 10.194 15.5883 9.0199C14.1411 9.5582 12.6098 9.8343 11.066 9.8364C4.96415 9.8364 0 5.6996 0 0.6148C0 0.275 0.275269 0 0.614777 0H36.2719C36.6114 0 36.8866 0.275 36.8866 0.6148C36.8866 4.9692 33.841 8.9473 29.2485 10.7055V10.7055zM31.7076 34.81897L31.4938 33.60803L26.6531 34.46176L26.8662 35.673L31.7076 34.81897zM26.3328 32.64444L26.4396 33.25021L31.2828 32.39859L31.1759 31.79312C30.9967 30.7914 30.0421 30.12289 29.0395 30.2967L28.3017 30.42638L27.8247 30.51013C26.8242 30.68874 26.1569 31.64333 26.3328 32.64444zM27.6152 29.29709L28.8261 29.08365L26.6912 16.9727L25.4799 17.1865L27.6152 29.29709zM22.2049 12.7707L22.8482 16.4021L25.2686 15.9761L24.9489 14.1612L26.1599 13.9475L26.4796 15.7627L28.9035 15.3361L28.2605 11.709C28.2245 11.5022 28.1675 11.2998 28.0909 11.1047C28.0429 11.1182 27.9937 11.1272 27.9466 11.1407C27.7619 11.1924 27.5734 11.2386 27.3846 11.283C27.2561 11.313 27.1289 11.3443 26.9992 11.3734C26.7999 11.4145 26.5981 11.4469 26.3967 11.4802C26.1629 11.5184 25.9278 11.5505 25.6916 11.5766C25.5145 11.597 25.3374 11.6186 25.159 11.6327C25.0102 11.6444 24.861 11.6499 24.7109 11.6568C24.5302 11.6652 24.3494 11.6727 24.1681 11.6751C24.1066 11.6751 24.0451 11.682 23.9787 11.682C23.8815 11.682 23.7845 11.6757 23.6872 11.6739C23.5606 11.6739 23.4345 11.6685 23.3081 11.6628C23.1469 11.6562 22.9869 11.6456 22.8266 11.6339C22.6912 11.6234 22.5573 11.6129 22.4226 11.5994C22.3613 11.5934 22.2953 11.5904 22.2328 11.5835C22.1425 11.9734 22.1323 12.3778 22.2025 12.7719L22.2049 12.7707zM11.066 8.6069C12.5699 8.6105 14.0606 8.3253 15.4574 7.767C15.66 7.6841 15.8587 7.5956 16.0524 7.5031C16.1139 7.4737 16.1754 7.4419 16.2325 7.4109C16.3627 7.3452 16.4939 7.2801 16.6197 7.2101C16.6887 7.172 16.7545 7.1306 16.822 7.0907C16.9346 7.0249 17.0472 6.9592 17.1558 6.8898C17.2261 6.8454 17.293 6.798 17.3612 6.752C17.4626 6.6836 17.5635 6.6149 17.6613 6.5434C17.7289 6.4945 17.794 6.4429 17.8604 6.3918C17.9531 6.3198 18.045 6.2471 18.1347 6.173C18.1993 6.1193 18.2575 6.064 18.3226 6.0094C18.4082 5.9337 18.4932 5.8575 18.5748 5.7788C18.6363 5.7215 18.6928 5.6633 18.7513 5.6041C18.8294 5.5249 18.9056 5.445 18.9801 5.3631C19.0353 5.3019 19.0893 5.2403 19.1428 5.1788C19.2142 5.0956 19.2829 5.011 19.3508 4.9254C19.4003 4.8639 19.4495 4.8026 19.4976 4.7348C19.5591 4.6475 19.6242 4.5583 19.6819 4.4694C19.7263 4.404 19.7704 4.3389 19.8125 4.2731C19.8707 4.181 19.9247 4.0888 19.9791 3.9934C20.0172 3.9276 20.0559 3.8619 20.0913 3.7949C20.1436 3.6965 20.191 3.5968 20.2384 3.4974C20.269 3.4323 20.3 3.3678 20.3306 3.3017C20.3774 3.1949 20.4185 3.0868 20.4597 2.9784C20.4831 2.9169 20.5089 2.8557 20.5305 2.7941C20.5734 2.671 20.6104 2.5414 20.6461 2.4141C20.6596 2.3673 20.6755 2.3219 20.6878 2.2745C20.7334 2.0992 20.7722 1.9218 20.8028 1.7429C20.807 1.7183 20.8088 1.693 20.8127 1.6684C20.8367 1.5225 20.8559 1.376 20.8697 1.229H1.25837C1.64561 5.3484 5.89682 8.6069 11.066 8.6069V8.6069zM22.108 1.2296V1.2527C22.1038 1.3064 22.0951 1.3586 22.0894 1.4115C22.0741 1.5628 22.0569 1.7132 22.0329 1.862C22.0212 1.9359 22.0059 2.0082 21.9918 2.0809C21.9678 2.2094 21.9414 2.3372 21.9111 2.4639C21.8927 2.5408 21.8717 2.617 21.8498 2.6933C21.8165 2.816 21.7802 2.9376 21.7408 3.0571C21.7168 3.1321 21.6922 3.2066 21.6658 3.2804C21.6211 3.4032 21.5718 3.5293 21.5208 3.6523C21.4938 3.7175 21.4686 3.7838 21.4398 3.8484C21.3713 4.0015 21.2978 4.1521 21.2203 4.3007C21.2029 4.3335 21.1888 4.3668 21.1717 4.3986C21.0744 4.5793 20.9706 4.757 20.8598 4.9317C20.8286 4.9807 20.7947 5.0281 20.7622 5.0761C20.6797 5.1992 20.5956 5.325 20.5065 5.445C20.4609 5.5066 20.4137 5.5678 20.3669 5.6294C20.2838 5.7362 20.1997 5.8416 20.1111 5.9454C20.0589 6.007 20.0055 6.0682 19.9511 6.1298C19.8611 6.2306 19.7677 6.3303 19.6717 6.4287C19.6161 6.4852 19.5609 6.5422 19.5039 6.5983C19.3979 6.7016 19.2886 6.8019 19.1773 6.9012C19.125 6.9475 19.0752 6.9949 19.0224 7.0396C18.8606 7.178 18.6946 7.3134 18.5226 7.4431L18.5079 7.4548C18.3284 7.5899 18.1389 7.7189 17.9513 7.8444C17.8973 7.8801 17.8403 7.9138 17.7847 7.9489C17.6466 8.0362 17.5076 8.1218 17.3636 8.204C17.293 8.2446 17.2204 8.2833 17.1486 8.3232C17.0766 8.3634 16.9943 8.4106 16.9142 8.4517C18.4268 9.4096 20.1232 10.0394 21.8939 10.3011C23.2015 10.4935 24.5299 10.5019 25.8396 10.3257C25.8648 10.3218 25.89 10.3206 25.9146 10.317L25.965 10.3083C26.7305 10.1982 27.4846 10.0196 28.2182 9.7749C32.5094 8.3718 35.3587 5.0596 35.6355 1.2296H22.108z" />
    <glyph glyph-name="icon-serv-3"
      unicode="&#xE00B;"
      horiz-adv-x="35" d=" M34.3413 20.0514C33.4169 25.0989 31.7301 29.25176 30.8068 31.27806C30.3219 32.342153 29.2408 33.0190338 28.0585 32.999592035L17.9774 32.843717C16.8884 32.826833 15.8694 32.241363 15.3182 31.31558C14.6947 30.26845 14.7521 28.95161 15.4642 27.96093L17.768 24.75568C18.5742 23.63437 20.0381 23.21484 21.3288 23.73576L24.5901 25.052C24.7384 24.15444 24.5802 23.28212 24.1151 22.4527C22.9539 20.3815 22.3403 18.1321 22.3182 15.9017C21.5703 16.4156 20.8022 16.8388 20.0165 17.1681C18.3411 17.8704 16.5873 18.1505 14.8046 18.0007C14.4143 17.9679 14.0406 17.9158 13.6852 17.8504C11.8067 22.6979 8.34768 24.17934 5.73995 24.56033C2.86449 24.98046 0.453436 24.18983 0.352197 24.15597C0.0809275 24.06525 -0.0642688 23.77515 0.0275388 23.50774C0.119433 23.24025 0.413806 23.09665 0.685422 23.18678C0.708179 23.19429 2.99074 23.93725 5.62374 23.54279C8.9289 23.04762 11.2945 21.0534 12.6638 17.6144C10.8472 17.1096 9.70879 16.3304 9.64545 16.2864C9.41113 16.1235 9.35523 15.8043 9.52059 15.5734C9.68586 15.3425 10.0098 15.2874 10.2441 15.4503C10.2628 15.4633 12.141 16.7499 14.8929 16.9811C16.5053 17.1167 18.0925 16.8627 19.6103 16.2265C21.5284 15.4224 23.3472 14.0006 25.0165 12.0005C25.1191 11.8775 25.2678 11.8139 25.4178 11.8139C25.5339 11.8139 25.6506 11.852 25.7474 11.9303C25.9688 12.1098 26.0007 12.4322 25.8185 12.6505C25.0361 13.588 24.2196 14.4071 23.3738 15.1049L23.3698 15.182C23.2505 17.4715 23.8226 19.8145 25.0243 21.9578C25.6466 23.06783 25.8291 24.24031 25.5715 25.44791L27.1638 26.09052C27.4291 26.19762 27.5561 26.49641 27.4474 26.75785C27.3387 27.01937 27.0353 27.14438 26.7701 27.03736L20.9355 24.68252C20.0947 24.34306 19.1408 24.61652 18.6156 25.34704L16.3118 28.55229C15.8352 29.21535 15.7967 30.09671 16.2141 30.79764C16.583 31.4173 17.2651 31.80921 17.9939 31.82047L28.0751 31.97634C28.8457 31.98768 29.545 31.54965 29.8598 30.85878C30.7636 28.87521 32.415 24.80983 33.3196 19.8695C34.4002 13.9689 34.116 8.6073 32.4752 3.9285C26.9834 1.7614 22.2703 0.8226 18.0735 1.0587C15.2223 1.2193 12.5952 1.9374 10.2655 3.1934C7.64809 4.6043 5.33075 6.7363 3.37259 9.5287C4.48337 9.902 5.60661 9.8388 5.62659 9.8375C5.91266 9.8186 6.15962 10.0314 6.17917 10.3131C6.19873 10.595 5.98266 10.8391 5.6966 10.8584C5.65325 10.8613 4.61835 10.9267 3.45704 10.6256C1.84716 10.2082 0.77247 9.2909 0.348995 7.9731C0.262466 7.7037 0.413892 7.4162 0.687239 7.3309C0.739416 7.3146 0.792112 7.307 0.844116 7.307C1.06442 7.307 1.26889 7.4463 1.33898 7.6642C1.54423 8.303 1.94745 8.7554 2.4276 9.0756C6.32939 3.4413 11.5727 0.3999 18.0143 0.0373C18.4552 0.0124 18.9005 0 19.352 0C23.4162 0.0001 27.9248 1.0084 33.0822 3.0663C33.2196 3.1211 33.3267 3.2313 33.3764 3.3689C35.1463 8.269 35.4711 13.8818 34.3413 20.0514z" />
    <glyph glyph-name="icon-serv-4"
      unicode="&#xE00C;"
      horiz-adv-x="36" d=" M28.7909 27.0822C28.4577 27.4153 27.9162 27.4153 27.583 27.0822L16.2295 15.7286L9.99917 21.9572C9.66604 22.2903 9.12447 22.2903 8.79135 21.9572C8.45822 21.6241 8.45822 21.0825 8.79135 20.7494L15.6247 13.9161C15.7921 13.7504 16.0107 13.6666 16.2294 13.6666C16.4481 13.6666 16.6667 13.7503 16.8325 13.9161L28.7908 25.8744C29.124 26.2076 29.124 26.7491 28.7909 27.0822z M35.2651 35.83914L18.1818 40.964145C18.0213 41.0119517 17.8521 41.0119517 17.6915 40.964145L0.608194 35.83914C0.247682 35.73152 0 35.39839 0 35.02082V16.2291C0 8.6749 11.5176 1.956 17.6847 0.0376C17.7667 0.0119 17.8521 0 17.9375 0C18.0229 0 18.1083 0.0119 18.1903 0.0376C24.3575 1.9578 35.875 8.6749 35.875 16.2292V35.02082C35.875 35.39839 35.6273 35.72984 35.2651 35.83914zM34.1667 16.2292C34.1667 10.2313 24.6633 3.9241 17.9375 1.7494C11.2118 3.9241 1.70831 10.2313 1.70831 16.2292V34.38532L17.9375 39.25408L34.1667 34.38532V16.2292V16.2292z" />
    <glyph glyph-name="icon-serv-5"
      unicode="&#xE00D;"
      horiz-adv-x="35" d=" M17.4976 0C27.162 0 34.9976 7.8356 34.9976 17.5C34.9976 27.16432 27.162 35.00000132173 17.4976 35.00000132173C7.83324 35.00000132173 -0.0000763222 27.1644 -0.0000763222 17.5C-0.0000763222 7.8357 7.83317 0 17.4976 0zM17.4976 32.65537C25.8537 32.65537 32.653 25.85609 32.653 17.5C32.653 9.1438 25.8536 2.3446 17.4976 2.3446C9.14155 2.3446 2.34455 9.1438 2.34455 17.5C2.34219 25.85373 9.13911 32.65537 17.4976 32.65537z M16.6901 8.382C16.9245 8.1475 17.2294 8.035 17.5365 8.0397C17.8483 8.035 18.1555 8.1475 18.3899 8.382L26.2325 15.3196C26.692 15.7791 26.692 16.5271 26.2325 16.9866C25.773 17.4484 25.025 17.4484 24.5655 16.9866L17.5412 10.7711L10.5168 16.9866C10.0573 17.4484 9.30699 17.4484 8.84984 16.9866C8.39032 16.5271 8.39032 15.7791 8.84984 15.3196L16.6901 8.382z M16.6901 16.7895C16.9245 16.555 17.2294 16.4424 17.5365 16.4472C17.8483 16.4424 18.1555 16.555 18.3899 16.7895L26.2325 23.7248C26.692 24.1866 26.692 24.9346 26.2325 25.39174C25.773 25.85361 25.025 25.85361 24.5655 25.39174L17.5412 19.1809L10.5168 25.39174C10.0573 25.85361 9.30699 25.85361 8.84984 25.39174C8.39032 24.9345 8.39032 24.1866 8.84984 23.7248L16.6901 16.7895z" />
    <glyph glyph-name="icon-serv-6"
      unicode="&#xE00E;"
      horiz-adv-x="35" d=" M34.4873 3.417H26.7346C26.4514 3.417 26.2219 3.1875 26.2219 2.9043C26.2219 2.6212 26.4514 2.3917 26.7346 2.3917H33.9746V1.5799H1.02539V2.3917H24.3982C24.6814 2.3917 24.9109 2.6212 24.9109 2.9043C24.9109 3.1875 24.6814 3.417 24.3982 3.417H14.4871V4.2439C14.4871 4.6789 14.1332 5.0327 13.6983 5.0327H12.5445V7.4643C12.5445 8.0006 12.1081 8.437 11.5717 8.437H10.6702C10.387 8.437 10.1575 8.2075 10.1575 7.9243C10.1575 7.6412 10.387 7.4116 10.6702 7.4116H11.5192V5.0327H4.35148V7.4116H8.33376C8.61697 7.4116 8.84645 7.6412 8.84645 7.9243C8.84645 8.2075 8.61697 8.437 8.33376 8.437H4.29892C3.7625 8.437 3.32616 8.0006 3.32616 7.4643V5.0327H2.17226C1.73735 5.0327 1.38346 4.6789 1.38346 4.2439V3.417H0.512695C0.229482 3.417 0 3.1875 0 2.9043V1.0672C0 0.784 0.229482 0.5545 0.512695 0.5545H34.4873C34.7705 0.5545 35 0.784 35 1.0672V2.9043C35 3.1875 34.7705 3.417 34.4873 3.417zM2.40885 4.0073H13.4617V3.417H2.40885V4.0073z M32.3808 33.79847H19.4412C18.0889 33.79847 16.9886 32.69822 16.9886 31.3458C16.9886 30.55878 16.3483 29.91853 15.5613 29.91853H11.0222V33.93286C11.0222 34.216006 10.7927 34.445557 10.5095 34.445557H5.36356C5.08035 34.445557 4.85087 34.216006 4.85087 33.93286V31.45148C4.85087 31.16834 5.08035 30.93879 5.36356 30.93879C5.64678 30.93879 5.87626 31.16834 5.87626 31.45148V33.42017H9.99676V29.91853H8.81824V30.69659C8.81824 30.97974 8.58876 31.20929 8.30555 31.20929C8.02233 31.20929 7.79285 30.97974 7.79285 30.69659V23.5189C7.79285 23.2357 8.02233 23.0062 8.30555 23.0062C8.58876 23.0062 8.81824 23.2357 8.81824 23.5189V24.0538H9.99676V22.1919H5.87626V29.1151C5.87626 29.39824 5.64678 29.62779 5.36356 29.62779C5.08035 29.62779 4.85087 29.39824 4.85087 29.1151V22.192H3.79909C2.74889 22.192 1.89453 21.3376 1.89453 20.2874C1.89446 19.3301 2.60458 18.5357 3.52572 18.4027V17.0363C3.52572 16.7532 3.7552 16.5236 4.03842 16.5236H4.21205V16.0488C4.21205 15.7657 4.44153 15.5361 4.72475 15.5361C5.00796 15.5361 5.23744 15.7657 5.23744 16.0488V16.5236H5.44881L6.65952 12.7622C6.84149 12.197 7.3427 11.8318 7.93654 11.8318C8.53038 11.8318 9.03159 12.197 9.21356 12.7622L10.4243 16.5236H10.6357V16.0488C10.6357 15.7657 10.8652 15.5361 11.1484 15.5361C11.4316 15.5361 11.6611 15.7657 11.6611 16.0488V16.5236H11.8347C12.1179 16.5236 12.3474 16.7532 12.3474 17.0363V18.4027C13.2686 18.5357 13.9786 19.33 13.9786 20.2874C13.9786 21.3376 13.1243 22.1919 12.0741 22.1919H11.0222V24.0538H15.5613C16.9137 24.0538 18.0139 25.15408 18.0139 26.5065C18.0139 27.29353 18.6542 27.93378 19.4412 27.93378H32.3808C32.664 27.93378 32.8935 28.16333 32.8935 28.44647V33.28577C32.8935 33.56892 32.664 33.79847 32.3808 33.79847zM8.23739 13.0764C8.17368 12.8785 8.00572 12.8572 7.93654 12.8572C7.86736 12.8572 7.69934 12.8786 7.63569 13.0764L6.52608 16.5237H9.34707L8.23739 13.0764zM11.322 17.549H4.55111V18.3828H11.322V17.549V17.549zM12.0741 21.1666C12.5589 21.1666 12.9532 20.7722 12.9532 20.2874C12.9532 19.8027 12.5588 19.4083 12.0741 19.4083H3.79909C3.31429 19.4083 2.91992 19.8027 2.91992 20.2874C2.91992 20.7722 3.31429 21.1666 3.79909 21.1666H12.0741zM15.5613 25.0793H8.81824V25.66698H15.5613C16.0652 25.66698 16.5338 25.81983 16.9238 26.08145C16.7425 25.50142 16.2002 25.0793 15.5613 25.0793zM15.5613 26.69237H8.81824V27.27999H15.5613C16.0651 27.27999 16.5338 27.43284 16.9238 27.69445C16.7425 27.11449 16.2002 26.69237 15.5613 26.69237zM15.5613 28.30545H8.81824V28.89313H15.5613C16.0652 28.89313 16.5338 29.04599 16.9238 29.3076C16.7425 28.72757 16.2002 28.30545 15.5613 28.30545zM31.8681 28.95924H19.4412C18.9374 28.95924 18.4687 28.80639 18.0787 28.54478C18.26 29.1248 18.8023 29.54692 19.4412 29.54692H31.8681V28.95924V28.95924zM31.8681 30.57231H19.4412C18.9374 30.57231 18.4687 30.41939 18.0787 30.15785C18.26 30.73788 18.8023 31.16 19.4412 31.16H31.8681V30.57231V30.57231zM31.8681 32.18539H19.4412C18.9374 32.18539 18.4687 32.03254 18.0787 31.77093C18.26 32.35096 18.8022 32.77308 19.4412 32.77308H31.8681V32.18539V32.18539z M6.94238 32.89575C6.65917 32.89575 6.42969 32.6662 6.42969 32.38306V32.33801C6.42969 32.05486 6.65917 31.82531 6.94238 31.82531C7.2256 31.82531 7.45508 32.05486 7.45508 32.33801V32.38306C7.45508 32.6662 7.2256 32.89575 6.94238 32.89575z" />
  </font>
</defs>
</svg>
