<svg width="20" height="20" viewBox="0 0 20 20" fill="none" xmlns="http://www.w3.org/2000/svg">
<circle cx="10" cy="10" r="10" fill="url(#paint0_linear)"/>
<path d="M12.4251 4H7.57486C5.60368 4 4 5.60368 4 7.57486V12.4251C4 14.3963 5.60368 16 7.57486 16H12.4251C14.3963 16 16 14.3963 16 12.4251V7.57486C16 5.60368 14.3963 4 12.4251 4ZM14.7928 12.4251C14.7928 13.7327 13.7327 14.7928 12.4251 14.7928H7.57486C6.26725 14.7928 5.2072 13.7327 5.2072 12.4251V7.57486C5.2072 6.26723 6.26725 5.2072 7.57486 5.2072H12.4251C13.7327 5.2072 14.7928 6.26723 14.7928 7.57486V12.4251Z" fill="white"/>
<path d="M10.0001 6.89636C8.28877 6.89636 6.89648 8.28865 6.89648 9.99997C6.89648 11.7113 8.28877 13.1036 10.0001 13.1036C11.7115 13.1036 13.1037 11.7113 13.1037 9.99997C13.1037 8.28862 11.7115 6.89636 10.0001 6.89636ZM10.0001 11.8964C8.95273 11.8964 8.10368 11.0474 8.10368 9.99999C8.10368 8.95261 8.95276 8.10356 10.0001 8.10356C11.0475 8.10356 11.8965 8.95261 11.8965 9.99999C11.8965 11.0473 11.0475 11.8964 10.0001 11.8964Z" fill="white"/>
<path d="M13.1099 7.66335C13.5206 7.66335 13.8536 7.33039 13.8536 6.91966C13.8536 6.50893 13.5206 6.17596 13.1099 6.17596C12.6992 6.17596 12.3662 6.50893 12.3662 6.91966C12.3662 7.33039 12.6992 7.66335 13.1099 7.66335Z" fill="white"/>
<defs>
<linearGradient id="paint0_linear" x1="10" y1="0" x2="10" y2="20" gradientUnits="userSpaceOnUse">
<stop stop-color="#8421B0"/>
<stop offset="0.499219" stop-color="#C21F70"/>
<stop offset="0.955801" stop-color="#D47644"/>
</linearGradient>
</defs>
</svg>
