<svg width="265" height="88" viewBox="0 0 265 88" fill="none" xmlns="http://www.w3.org/2000/svg">
<path d="M10.7547 40.6417C10.5265 40.5731 10.0806 40.5649 9.8952 40.5649H5.4683C4.8263 40.5649 4.1842 40.5167 3.5513 40.4076C2.8712 40.2902 2.2533 40.0178 1.7099 39.5926C1.1231 39.1337 0.712398 38.5197 0.433998 37.834C0.0861981 36.9774 0 35.9546 0 35.0376V20.5177C0 18.8518 0.4201 17.255 1.569 16.0086C2.8188 14.6523 4.70179 14.282 6.47179 14.282H20.4395V23.625H10.0721C9.8036 23.625 9.6971 23.6146 9.6971 23.8819V31.6732C9.6971 31.7435 9.7064 31.9529 9.739 32.0026C9.8623 32.0924 10.1642 32.1071 10.3082 32.1071H15.6796C16.9702 32.1071 18.305 32.3725 19.2949 33.2555C20.3723 34.2164 20.6167 35.7928 20.6167 37.1625V51.2691C20.6167 53.1246 20.3369 55.3768 18.974 56.7671C17.5913 58.1782 15.2507 58.4492 13.3776 58.4492H0.590195V49.1062H10.4854C10.5449 49.1062 10.7311 49.0992 10.7813 49.0592C10.7995 49.0297 10.8014 48.9407 10.8014 48.9081V41.1171C10.8014 41.0201 10.7938 40.7707 10.7547 40.6417ZM32.6574 47.0576V58.4492H22.7832V14.282H40.2925C41.9086 14.282 43.4996 14.686 44.6114 15.9273C45.669 17.1076 46.0559 18.6052 46.0559 20.1634V40.6448C46.0559 41.4663 45.9734 42.2917 45.7688 43.0886C45.5653 43.8794 45.1877 44.5838 44.6341 45.1837C44.0433 45.8234 43.2921 46.2671 42.4814 46.5712C41.4805 46.9465 40.3515 47.0576 39.2891 47.0576H32.6574ZM71.6134 51.6824C71.6134 52.5296 71.5159 53.3744 71.2945 54.1933C71.0754 55.0043 70.6967 55.741 70.1493 56.3794C69.5685 57.0569 68.8244 57.5455 68.0077 57.8928C67.0062 58.3183 65.8676 58.4492 64.7876 58.4492H54.8714C53.7914 58.4492 52.6527 58.3183 51.6512 57.8928C50.8343 57.5455 50.0905 57.0569 49.5097 56.3794C48.9623 55.741 48.5836 55.0043 48.3645 54.1933C48.1431 53.3744 48.0456 52.5296 48.0456 51.6824V20.5177C48.0456 18.8518 48.4657 17.255 49.6145 16.0086C50.8643 14.6523 52.7474 14.282 54.5173 14.282H65.1416C66.9116 14.282 68.7946 14.6523 70.0444 16.0086C71.1933 17.255 71.6134 18.8518 71.6134 20.5177V51.6824ZM93.5734 44.7434L98.0827 58.4492H87.7692L83.7133 45.0654V58.4492H73.7802V14.282H90.699C92.469 14.282 94.3521 14.6523 95.6018 16.0086C96.7507 17.255 97.1708 18.8518 97.1708 20.5177V40.3497C97.1708 41.4915 96.7646 42.5058 96.0401 43.3842C95.3887 44.1737 94.5281 44.5895 93.5734 44.7434ZM114.111 23.625V58.4492H104V23.625H98.2749V14.282H119.836V23.625H114.111ZM175.845 40.6417C175.617 40.5731 175.171 40.5649 174.986 40.5649H170.559C169.917 40.5649 169.275 40.5167 168.642 40.4076C167.962 40.2902 167.344 40.0178 166.8 39.5926C166.213 39.1337 165.803 38.5197 165.524 37.834C165.176 36.9774 165.09 35.9546 165.09 35.0376V20.5177C165.09 18.8518 165.51 17.255 166.659 16.0086C167.909 14.6523 169.792 14.282 171.562 14.282H185.53V23.625H175.162C174.894 23.625 174.787 23.6146 174.787 23.8819V31.6732C174.787 31.7435 174.796 31.9529 174.829 32.0026C174.953 32.0924 175.255 32.1071 175.398 32.1071H180.77C182.06 32.1071 183.395 32.3725 184.385 33.2555C185.463 34.2164 185.707 35.7928 185.707 37.1625V51.2691C185.707 53.1246 185.427 55.3768 184.064 56.7671C182.682 58.1782 180.341 58.4492 178.468 58.4492H165.68V49.1062H175.576C175.635 49.1062 175.822 49.0992 175.872 49.0592C175.89 49.0297 175.892 48.9407 175.892 48.9081V41.1171C175.892 41.0201 175.884 40.7707 175.845 40.6417ZM197.984 32.6384H198.052L202.42 14.282H212.706L207.388 34.6969L212.612 58.4492H201.804L198.439 40.801H197.984V58.4492H187.873V14.282H197.984V32.6384ZM213.49 14.282H223.423V58.4492H213.49V14.282ZM235.759 49.1062H244.377V58.4492H225.59V14.282H235.759V49.1062ZM255.827 49.1062H264.445V58.4492H245.658V14.282H255.827V49.1062ZM32.6574 23.1528V38.5999H36.2197C36.2506 38.5999 36.3005 38.5993 36.349 38.5949C36.357 38.5246 36.359 38.4446 36.359 38.4015V23.2912C36.359 23.2617 36.357 23.1999 36.3482 23.156C36.3236 23.153 36.2952 23.152 36.2791 23.152H32.6578L32.6574 23.1528ZM58.0485 23.1568C58.0395 23.2007 58.0377 23.2625 58.0377 23.292V49.3806C58.0377 49.4237 58.0397 49.504 58.0477 49.5743C58.0962 49.5783 58.1464 49.5793 58.1773 49.5793H61.4235C61.4544 49.5793 61.5043 49.5787 61.5528 49.5743C61.5608 49.504 61.5628 49.4237 61.5628 49.3806V23.292C61.5628 23.2625 61.5608 23.2007 61.552 23.1568C61.5274 23.1538 61.499 23.1528 61.4829 23.1528H58.1184C58.1023 23.1528 58.0739 23.1534 58.0493 23.1568H58.0485ZM83.7133 23.1528V36.534H87.2167C87.2428 36.534 87.2997 36.532 87.3343 36.523C87.3516 36.4731 87.3556 36.3758 87.3556 36.3362V23.3506C87.3556 23.311 87.3516 23.2137 87.3343 23.1638C87.2997 23.1548 87.2428 23.1528 87.2167 23.1528H83.7133Z" fill="url(#paint0_linear)"/>
<path d="M1.27769 57.7619V49.7937H10.4855C11.1545 49.7937 11.4889 49.4987 11.4889 48.9082V41.1172C11.4889 40.527 11.3707 40.1727 11.1346 40.0547C10.8985 39.9365 10.4855 39.8776 9.89529 39.8776H5.4684C4.8389 39.8776 4.2388 39.8285 3.6682 39.7302C3.0975 39.6318 2.5862 39.4053 2.1335 39.0513C1.6811 38.6972 1.3267 38.2051 1.0711 37.5756C0.815398 36.946 0.6875 36.1001 0.6875 35.0377V20.5178C0.6875 18.8258 1.14989 17.4779 2.07449 16.4745C2.99919 15.4713 4.46499 14.9695 6.47189 14.9695H19.7522V22.9377H10.0722C9.3641 22.9377 9.0098 23.2524 9.0098 23.882V31.6733C9.0098 32.1061 9.11799 32.4012 9.33459 32.5585C9.55089 32.7161 9.8755 32.7947 10.3083 32.7947H15.6797C17.0568 32.7947 18.1095 33.1192 18.8375 33.7686C19.5654 34.4178 19.9294 35.5491 19.9294 37.1626V51.2692C19.9294 53.6301 19.4472 55.3026 18.4831 56.2862C17.5191 57.2701 15.8172 57.7619 13.3777 57.7619H1.27769ZM31.9701 22.4655V39.2874H36.2198C36.5739 39.2874 36.8003 39.2185 36.8987 39.0808C36.9971 38.943 37.0461 38.7168 37.0461 38.4021V23.2918C37.0461 22.741 36.7904 22.4655 36.2788 22.4655H31.9701ZM40.2926 14.9695C41.9846 14.9695 43.2534 15.4415 44.0996 16.386C44.9457 17.3305 45.3686 18.5897 45.3686 20.1635V40.6449C45.3686 41.4712 45.2799 42.2286 45.103 42.9175C44.9259 43.606 44.6013 44.2061 44.129 44.7175C43.6568 45.2291 43.0272 45.6325 42.2403 45.9276C41.4534 46.2227 40.4695 46.3703 39.2892 46.3703H31.9701V57.7619H23.4707V14.9695H40.2926ZM58.1177 22.4655C57.6064 22.4655 57.3504 22.741 57.3504 23.2918V49.3804C57.3504 49.6954 57.3997 49.9216 57.4981 50.0593C57.5964 50.1971 57.8226 50.266 58.177 50.266H61.4232C61.7773 50.266 62.0035 50.1971 62.1018 50.0593C62.2002 49.9216 62.2495 49.6954 62.2495 49.3804V23.2918C62.2495 22.741 61.9938 22.4655 61.4822 22.4655H58.1177ZM70.9261 51.6825C70.9261 52.5088 70.8277 53.286 70.631 54.014C70.4343 54.7419 70.0998 55.3814 69.6275 55.9322C69.1553 56.4829 68.5257 56.9257 67.7388 57.2602C66.9519 57.5947 65.968 57.7619 64.7877 57.7619H54.8715C53.6911 57.7619 52.7072 57.5947 51.9203 57.2602C51.1332 56.9257 50.5036 56.4829 50.0316 55.9322C49.5594 55.3814 49.2249 54.7419 49.0282 54.014C48.8314 53.286 48.7331 52.5088 48.7331 51.6825V20.5178C48.7331 18.8258 49.1954 17.4779 50.1201 16.4745C51.0447 15.4713 52.5105 14.9695 54.5174 14.9695H65.1417C67.1486 14.9695 68.6144 15.4713 69.5391 16.4745C70.4637 17.4779 70.9261 18.8258 70.9261 20.5178V51.6825ZM83.026 22.4655V37.2215H87.2168C87.7678 37.2215 88.0431 36.9264 88.0431 36.3363V23.3507C88.0431 22.7606 87.7678 22.4655 87.2168 22.4655H83.026ZM96.4835 40.3498C96.4835 41.2943 96.159 42.1598 95.5098 42.9469C94.8604 43.7338 93.9063 44.1273 92.6471 44.1273L97.1329 57.7619H88.2792L84.1474 44.1273H83.026V57.7619H74.4677V14.9695H90.6991C92.7061 14.9695 94.1719 15.4713 95.0965 16.4745C96.0212 17.4779 96.4835 18.8258 96.4835 20.5178V40.3498ZM119.149 14.9695V22.9377H113.423V57.7619H104.688V22.9377H98.9624V14.9695H119.149ZM166.368 57.7619V49.7937H175.576C176.245 49.7937 176.579 49.4987 176.579 48.9082V41.1172C176.579 40.527 176.461 40.1727 176.225 40.0547C175.989 39.9365 175.576 39.8776 174.986 39.8776H170.559C169.929 39.8776 169.329 39.8285 168.758 39.7302C168.188 39.6318 167.676 39.4053 167.224 39.0513C166.771 38.6972 166.417 38.2051 166.161 37.5756C165.906 36.946 165.778 36.1001 165.778 35.0377V20.5178C165.778 18.8258 166.24 17.4779 167.165 16.4745C168.089 15.4713 169.555 14.9695 171.562 14.9695H184.842V22.9377H175.163C174.454 22.9377 174.1 23.2524 174.1 23.882V31.6733C174.1 32.1061 174.208 32.4012 174.425 32.5585C174.641 32.7161 174.966 32.7947 175.399 32.7947H180.77C182.147 32.7947 183.2 33.1192 183.928 33.7686C184.656 34.4178 185.02 35.5491 185.02 37.1626V51.2692C185.02 53.6301 184.538 55.3026 183.574 56.2862C182.609 57.2701 180.907 57.7619 178.468 57.7619H166.368ZM197.297 33.3259H198.595L202.963 14.9695H211.816L206.681 34.6834L211.758 57.7619H202.373L199.008 40.1137H197.297V57.7619H188.561V14.9695H197.297V33.3259ZM214.177 14.9695H222.736V57.7619H214.177V14.9695ZM226.277 14.9695H235.072V49.7937H243.69V57.7619H226.277V14.9695ZM246.346 14.9695H255.14V49.7937H263.758V57.7619H246.346V14.9695Z" fill="black"/>
<path fill-rule="evenodd" clip-rule="evenodd" d="M166.938 6.0358C166.938 7.755 168.16 9.04108 170.057 9.04108C171.955 9.04108 173.177 7.755 173.177 6.0358C173.177 4.3169 171.955 3.03049 170.057 3.03049C168.16 3.03049 166.938 4.3169 166.938 6.0358ZM168.504 6.0358C168.504 5.0425 169.192 4.40588 170.057 4.40588C170.949 4.40588 171.624 5.068 171.624 6.0358C171.624 7.029 170.962 7.6785 170.057 7.6785C169.166 7.6785 168.504 6.9911 168.504 6.0358ZM174.451 8.901H175.915V4.99179C176.259 4.64789 176.667 4.44409 177.163 4.44409C177.978 4.44409 178.449 4.87701 178.449 5.79401V8.901H179.914V5.53909C179.914 3.74369 178.959 3.06879 177.558 3.06879C176.87 3.06879 176.259 3.37428 175.915 3.74368V3.17081H174.451V8.901ZM181.404 7.3241C181.404 8.4934 181.875 9.02829 182.753 9.02829C183.441 9.02829 183.938 8.812 184.269 8.5444L183.963 7.4259C183.785 7.5512 183.594 7.6532 183.365 7.6532C183.021 7.6532 182.868 7.37508 182.868 6.72568V0H181.404V7.3241ZM185.428 8.901H186.892V3.17081H185.428V8.901ZM185.275 1.1077C185.275 1.6937 185.695 2.02478 186.192 2.02478C186.612 2.02478 187.032 1.6937 187.032 1.1077C187.032 0.585597 186.612 0.254486 186.192 0.254486C185.695 0.254486 185.275 0.585597 185.275 1.1077ZM188.738 8.901H190.203V4.99179C190.547 4.64789 190.954 4.44409 191.451 4.44409C192.266 4.44409 192.737 4.87701 192.737 5.79401V8.901H194.201V5.53909C194.201 3.74369 193.246 3.06879 191.846 3.06879C191.158 3.06879 190.547 3.37428 190.203 3.74368V3.17081H188.738V8.901ZM200.187 7.2966C199.855 7.5639 199.269 7.81879 198.569 7.81879C197.665 7.81879 196.977 7.34739 196.85 6.48169H200.989C201.052 6.26509 201.078 6.04849 201.078 5.69189C201.078 4.08749 199.843 3.03049 198.365 3.03049C196.481 3.03049 195.335 4.3676 195.335 6.0358C195.335 7.844 196.57 9.04108 198.416 9.04108C199.219 9.04108 200.034 8.81198 200.607 8.32788L200.187 7.2966ZM198.302 4.25308C199.142 4.25308 199.626 4.80069 199.613 5.50119H196.799C196.952 4.74969 197.423 4.25308 198.302 4.25308ZM209.304 6.9783C208.935 7.3856 208.451 7.6785 207.827 7.6785C206.961 7.6785 206.172 7.0546 206.172 6.0358C206.172 5.0298 206.948 4.40588 207.763 4.40588C208.285 4.40588 208.756 4.54588 209.19 4.96628L209.877 3.8075C209.342 3.2726 208.515 3.03049 207.572 3.03049C205.828 3.03049 204.605 4.3676 204.605 6.0358C204.605 7.844 205.853 9.04108 207.712 9.04108C208.642 9.04108 209.508 8.69719 209.992 8.04779L209.304 6.9783ZM211.163 8.901H212.627V4.96628C212.959 4.63518 213.417 4.44409 213.888 4.44409C214.69 4.44409 215.162 4.91519 215.162 5.76849V8.901H216.626V5.57739C216.626 3.78199 215.671 3.06879 214.27 3.06879C213.608 3.06879 212.997 3.33629 212.627 3.69269V0H211.163V8.901ZM218.562 4.64789C218.982 4.45689 219.402 4.25308 220.064 4.25308C220.917 4.25308 221.172 4.77519 221.134 5.73019C220.854 5.52639 220.344 5.3609 219.835 5.3609C218.676 5.3609 217.747 5.95949 217.747 7.22009C217.747 8.32789 218.498 8.9776 219.542 8.9776C220.319 8.9776 220.93 8.67169 221.236 8.23889V8.901H222.509V5.4119C222.509 3.8965 221.911 3.03049 220.217 3.03049C219.466 3.03049 218.689 3.28529 218.192 3.57809L218.562 4.64789ZM220.026 7.74219C219.568 7.74219 219.211 7.50019 219.211 7.06729C219.211 6.58339 219.644 6.3541 220.128 6.3541C220.548 6.3541 220.879 6.44339 221.134 6.63449V7.22009C220.956 7.47489 220.637 7.74219 220.026 7.74219ZM224.012 7.3241C224.012 8.4934 224.483 9.02829 225.362 9.02829C226.049 9.02829 226.546 8.812 226.877 8.5444L226.571 7.4259C226.393 7.5512 226.202 7.6532 225.973 7.6532C225.629 7.6532 225.476 7.37508 225.476 6.72568V0H224.012V7.3241ZM227.819 7.3241C227.819 8.4934 228.29 9.02829 229.169 9.02829C229.857 9.02829 230.353 8.812 230.684 8.5444L230.379 7.4259C230.201 7.5512 230.009 7.6532 229.78 7.6532C229.436 7.6532 229.284 7.37508 229.284 6.72568V0H227.819V7.3241ZM236.122 7.2966C235.791 7.5639 235.205 7.81879 234.505 7.81879C233.6 7.81879 232.913 7.34739 232.786 6.48169H236.924C236.988 6.26509 237.013 6.04849 237.013 5.69189C237.013 4.08749 235.778 3.03049 234.301 3.03049C232.416 3.03049 231.27 4.3676 231.27 6.0358C231.27 7.844 232.505 9.04108 234.352 9.04108C235.154 9.04108 235.969 8.81198 236.542 8.32788L236.122 7.2966ZM234.237 4.25308C235.078 4.25308 235.561 4.80069 235.549 5.50119H232.734C232.887 4.74969 233.359 4.25308 234.237 4.25308ZM238.197 8.901H239.662V4.99179C240.006 4.64789 240.413 4.44409 240.91 4.44409C241.725 4.44409 242.196 4.87701 242.196 5.79401V8.901H243.66V5.53909C243.66 3.74369 242.705 3.06879 241.304 3.06879C240.617 3.06879 240.006 3.37428 239.662 3.74368V3.17081H238.197V8.901ZM244.399 9.6777C244.399 10.9893 245.711 11.5497 247.379 11.5497C249.047 11.5497 250.359 10.9641 250.359 9.6777C250.359 8.3917 249.047 7.806 247.379 7.806H247.315C247.264 7.7167 247.238 7.61498 247.238 7.51288C247.238 7.44938 247.238 7.3729 247.264 7.2966H247.366C248.843 7.2966 249.798 6.32889 249.798 5.18259C249.798 4.92799 249.747 4.67339 249.658 4.44409L250.613 4.2276L250.562 3.056L248.83 3.43808C248.436 3.18358 247.939 3.03049 247.366 3.03049C245.851 3.03049 244.921 4.03649 244.921 5.18259C244.921 6.02299 245.417 6.76169 246.283 7.10559C246.194 7.22009 246.156 7.37288 246.156 7.51288C246.156 7.64048 246.194 7.79331 246.258 7.90781C245.163 8.13711 244.399 8.7227 244.399 9.6777ZM245.761 9.6777C245.761 9.2576 246.335 8.9776 247.379 8.9776C248.436 8.9776 248.983 9.2576 248.983 9.6777C248.983 10.1364 248.372 10.3782 247.379 10.3782C246.386 10.3782 245.761 10.1236 245.761 9.6777ZM246.296 5.18259C246.296 4.66069 246.704 4.21478 247.366 4.21478C248.054 4.21478 248.436 4.64789 248.436 5.18259C248.436 5.75569 247.99 6.1123 247.366 6.1123C246.704 6.1123 246.296 5.71739 246.296 5.18259ZM256 7.2966C255.669 7.5639 255.083 7.81879 254.383 7.81879C253.478 7.81879 252.791 7.34739 252.663 6.48169H256.802C256.866 6.26509 256.891 6.04849 256.891 5.69189C256.891 4.08749 255.656 3.03049 254.179 3.03049C252.294 3.03049 251.148 4.3676 251.148 6.0358C251.148 7.844 252.383 9.04108 254.23 9.04108C255.032 9.04108 255.847 8.81198 256.42 8.32788L256 7.2966ZM254.115 4.25308C254.955 4.25308 255.439 4.80069 255.427 5.50119H252.612C252.765 4.74969 253.237 4.25308 254.115 4.25308Z" fill="black"/>
<path fill-rule="evenodd" clip-rule="evenodd" d="M95.6584 69.6992C96.6925 68.6845 97.211 67.623 97.2134 66.5155C97.4614 62.1448 98.9946 63.5935 101.672 63.4918C104.599 63.3811 107.271 62.7323 109.687 61.5454C112.472 60.1211 115.011 59.6274 117.303 60.064C119.756 60.5305 122.088 63.5143 123.105 60.4957C124.859 56.9242 126.757 54.4659 128.795 53.1208C131.279 51.4835 130.062 51.016 129.95 48.4378C129.801 44.9954 130.826 42.397 133.023 40.6432C136.697 37.7088 133.53 38.5922 131.779 35.4395C130.163 32.5285 128.703 29.278 127.4 25.6879C124.65 18.5241 127.457 19.0265 132.46 17.8614C133.723 17.5673 134.966 17.2457 136.188 16.8974C138.218 16.3195 140.209 14.8905 142.15 14.914C143.877 14.9347 145.06 15.1784 144.06 13.0093C140.556 5.40071 147.934 0.620828 152.278 4.90033C154.085 6.68053 154.572 9.22391 153.739 12.5306C152.91 17.5393 149.189 16.3161 148.956 18.1619C148.869 18.8471 149.205 19.5745 149.966 20.3433C150.953 21.5571 151.5 22.6106 151.606 23.5038C151.968 26.6411 152.239 29.0554 152.418 30.7459C152.311 33.4968 154.634 31.0487 155.76 30.2108C157.465 28.9419 158.947 27.5201 160.208 25.9464C160.712 25.3077 160.742 24.7806 160.298 24.3653C158.503 23.1395 158.218 21.8989 159.443 20.6433C161.245 19.3303 162.664 19.6977 163.698 21.7455C164.278 23.2278 163.359 26.4641 160.34 30.6719C156.981 36.0543 154.323 38.0879 152.366 36.7732C150.183 34.7413 149.737 36.4347 148.943 38.184C148.421 39.3321 147.856 40.4511 147.249 41.54C145.265 45.0969 146.907 46.234 149.934 49.2197C154.68 53.9 158.925 60.1369 162.668 67.9298C165.303 73.8136 168.045 78.435 170.895 81.7929C173.282 82.8724 174.776 83.7216 175.377 84.3405C176.921 85.3723 178.734 85.5063 180.814 84.7425C181.88 86.4289 180.725 87.1277 177.351 86.8392C174.1 86.4304 171.38 86.4724 169.188 86.9646C166.342 87.7436 165.219 86.7428 165.818 83.9624C165.013 81.2611 159.673 77.2125 157.475 72.8174C156.3 70.4693 155.751 67.8299 154.178 66.5121C150.183 62.4963 145.057 59.2387 142.656 56.8486C141.299 55.4964 141.746 55.6488 140.162 56.8854C136.063 60.0878 130.806 64.1637 125.902 66.7968C122.637 68.5951 119.729 67.7251 116.183 67.1905C111.294 66.4536 102.878 66.9149 99.7034 69.5134C98.5132 70.4875 96.8307 72.97 95.7948 73.1901C94.4798 73.4687 93.8926 71.558 95.6584 69.6992ZM134.932 22.6563C133.821 22.5007 133.326 22.9003 133.449 23.8553C133.231 26.3716 133.553 28.7295 134.415 30.9288C135.502 32.6307 136.323 32.3242 136.881 30.009C137.197 25.5709 136.547 23.1199 134.932 22.6563Z" fill="black" fill-opacity="0.87"/>
<defs>
<linearGradient id="paint0_linear" x1="0" y1="14.282" x2="264.445" y2="14.282" gradientUnits="userSpaceOnUse">
<stop stop-color="#CCCBCD"/>
<stop offset="1" stop-color="white"/>
</linearGradient>
</defs>
</svg>
