<svg width="36" height="41" viewBox="0 0 36 41" fill="none" xmlns="http://www.w3.org/2000/svg">
<path d="M28.7909 13.9178C28.4577 13.5847 27.9162 13.5847 27.583 13.9178L16.2295 25.2714L9.99917 19.0428C9.66604 18.7097 9.12447 18.7097 8.79135 19.0428C8.45822 19.3759 8.45822 19.9175 8.79135 20.2506L15.6247 27.0839C15.7921 27.2496 16.0107 27.3334 16.2294 27.3334C16.4481 27.3334 16.6667 27.2497 16.8325 27.0839L28.7908 15.1256C29.124 14.7924 29.124 14.2509 28.7909 13.9178Z" fill="white"/>
<path d="M35.2651 5.16086L18.1818 0.035855C18.0213 -0.0119517 17.8521 -0.0119517 17.6915 0.035855L0.608194 5.16086C0.247682 5.26848 0 5.60161 0 5.97918V24.7709C0 32.3251 11.5176 39.044 17.6847 40.9624C17.7667 40.9881 17.8521 41 17.9375 41C18.0229 41 18.1083 40.9881 18.1903 40.9624C24.3575 39.0422 35.875 32.3251 35.875 24.7708V5.97918C35.875 5.60161 35.6273 5.27016 35.2651 5.16086ZM34.1667 24.7708C34.1667 30.7687 24.6633 37.0759 17.9375 39.2506C11.2118 37.0759 1.70831 30.7687 1.70831 24.7708V6.61468L17.9375 1.74592L34.1667 6.61468V24.7708V24.7708Z" fill="white"/>
</svg>
