<svg width="35" height="35" viewBox="0 0 35 35" fill="none" xmlns="http://www.w3.org/2000/svg">
<path d="M17.4976 35C27.162 35 34.9976 27.1644 34.9976 17.5C34.9976 7.83568 27.162 -1.32173e-06 17.4976 -1.32173e-06C7.83324 -1.32173e-06 -7.63222e-05 7.8356 -7.63222e-05 17.5C-7.63222e-05 27.1643 7.83317 35 17.4976 35ZM17.4976 2.34463C25.8537 2.34463 32.653 9.14391 32.653 17.5C32.653 25.8562 25.8536 32.6554 17.4976 32.6554C9.14155 32.6554 2.34455 25.8562 2.34455 17.5C2.34219 9.14627 9.13911 2.34463 17.4976 2.34463Z" fill="white"/>
<path d="M16.6901 26.618C16.9245 26.8525 17.2294 26.965 17.5365 26.9603C17.8483 26.965 18.1555 26.8525 18.3899 26.618L26.2325 19.6804C26.692 19.2209 26.692 18.4729 26.2325 18.0134C25.773 17.5516 25.025 17.5516 24.5655 18.0134L17.5412 24.2289L10.5168 18.0134C10.0573 17.5516 9.30699 17.5516 8.84984 18.0134C8.39032 18.4729 8.39032 19.2209 8.84984 19.6804L16.6901 26.618Z" fill="white"/>
<path d="M16.6901 18.2105C16.9245 18.445 17.2294 18.5576 17.5365 18.5528C17.8483 18.5576 18.1555 18.445 18.3899 18.2105L26.2325 11.2752C26.692 10.8134 26.692 10.0654 26.2325 9.60826C25.773 9.14639 25.025 9.14639 24.5655 9.60826L17.5412 15.8191L10.5168 9.60826C10.0573 9.14639 9.30699 9.14639 8.84984 9.60826C8.39032 10.0655 8.39032 10.8134 8.84984 11.2752L16.6901 18.2105Z" fill="white"/>
</svg>
